# This file uses millimeters as units for non-parametric coordinates.

mtllib mace.mtl
g default
v -0.107489 -0.325291 -1.321233
v -0.108016 -0.309685 -1.305438
v -0.123634 -0.309869 -1.320884
v 0.123634 -0.309869 -1.320884
v 0.107855 -0.309515 -1.305434
v 0.107489 -0.325291 -1.321233
v -0.107855 0.309515 -1.305434
v -0.107316 0.325291 -1.321406
v -0.123650 0.309528 -1.321218
v 0.123650 0.309528 -1.321218
v 0.107489 0.325291 -1.321233
v 0.107855 0.309515 -1.305434
v -0.123650 0.309528 -1.581516
v -0.107489 0.325291 -1.581501
v -0.107855 0.309515 -1.597300
v 0.107855 0.309515 -1.597300
v 0.107316 0.325291 -1.581329
v 0.123650 0.309528 -1.581516
v -0.107855 -0.309515 -1.597300
v -0.107316 -0.325291 -1.581329
v -0.123650 -0.309528 -1.581516
v 0.123650 -0.309528 -1.581516
v 0.107489 -0.325291 -1.581501
v 0.107855 -0.309515 -1.597300
v -0.122071 0.000000 -1.298348
v -0.137867 0.000000 -1.314132
v 0.122071 0.000000 -1.298348
v 0.137867 0.000000 -1.314132
v -0.122071 0.000000 -1.604386
v -0.137867 0.000000 -1.588603
v 0.137867 0.000000 -1.588603
v 0.122071 0.000000 -1.604386
v 0.048132 -0.030902 1.607570
v 0.040944 -0.058779 1.607570
v 0.029747 -0.080902 1.607570
v 0.015639 -0.095106 1.607570
v -0.000000 -0.100000 1.607570
v -0.015639 -0.095106 1.607570
v -0.029747 -0.080902 1.607570
v -0.040944 -0.058779 1.607570
v -0.048132 -0.030902 1.607570
v -0.050609 0.000000 1.607570
v -0.048132 0.030902 1.607570
v -0.040944 0.058779 1.607570
v -0.029747 0.080902 1.607570
v -0.015639 0.095106 1.607570
v -0.000000 0.100000 1.607570
v 0.015639 0.095106 1.607570
v 0.029747 0.080902 1.607570
v 0.040944 0.058779 1.607570
v 0.048132 0.030902 1.607570
v 0.050609 0.000000 1.607570
v 0.048132 -0.030902 1.360252
v 0.040944 -0.058779 1.360252
v 0.029747 -0.080902 1.360252
v 0.015639 -0.095106 1.360252
v -0.000000 -0.100000 1.360252
v -0.015639 -0.095106 1.360252
v -0.029747 -0.080902 1.360252
v -0.040944 -0.058779 1.360252
v -0.048132 -0.030902 1.360252
v -0.050609 0.000000 1.360252
v -0.048132 0.030902 1.360252
v -0.040944 0.058779 1.360252
v -0.029747 0.080902 1.360252
v -0.015639 0.095106 1.360252
v -0.000000 0.100000 1.360252
v 0.015639 0.095106 1.360252
v 0.029747 0.080902 1.360252
v 0.040944 0.058779 1.360252
v 0.048132 0.030902 1.360252
v 0.050609 0.000000 1.360252
v 0.049016 -0.030902 1.112933
v 0.041696 -0.058779 1.112933
v 0.030294 -0.080902 1.112933
v 0.015926 -0.095106 1.112933
v -0.000000 -0.100000 1.112933
v -0.015926 -0.095106 1.112933
v -0.030294 -0.080902 1.112933
v -0.041696 -0.058779 1.112933
v -0.049016 -0.030902 1.112933
v -0.051539 0.000000 1.112933
v -0.049016 0.030902 1.112933
v -0.041696 0.058779 1.112933
v -0.030294 0.080902 1.112933
v -0.015926 0.095106 1.112933
v -0.000000 0.100000 1.112933
v 0.015926 0.095106 1.112933
v 0.030294 0.080902 1.112933
v 0.041696 0.058779 1.112933
v 0.049016 0.030902 1.112933
v 0.051539 0.000000 1.112933
v 0.058624 -0.030902 0.865615
v 0.049869 -0.058779 0.865615
v 0.036232 -0.080902 0.865615
v 0.019048 -0.095106 0.865615
v -0.000000 -0.100000 0.865615
v -0.019048 -0.095106 0.865615
v -0.036232 -0.080902 0.865615
v -0.049869 -0.058779 0.865615
v -0.058624 -0.030902 0.865615
v -0.061641 0.000000 0.865615
v -0.058624 0.030902 0.865615
v -0.049869 0.058779 0.865615
v -0.036232 0.080902 0.865615
v -0.019048 0.095106 0.865615
v -0.000000 0.100000 0.865615
v 0.019048 0.095106 0.865615
v 0.036232 0.080902 0.865615
v 0.049869 0.058779 0.865615
v 0.058624 0.030902 0.865615
v 0.061641 0.000000 0.865615
v 0.061536 -0.030902 0.618296
v 0.052346 -0.058779 0.618296
v 0.038031 -0.080902 0.618296
v 0.019994 -0.095106 0.618296
v 0.000000 -0.100000 0.618296
v -0.019994 -0.095106 0.618296
v -0.038031 -0.080902 0.618296
v -0.052346 -0.058779 0.618296
v -0.061536 -0.030902 0.618296
v -0.064703 0.000000 0.618296
v -0.061536 0.030902 0.618296
v -0.052346 0.058779 0.618296
v -0.038031 0.080902 0.618296
v -0.019994 0.095106 0.618296
v -0.000000 0.100000 0.618296
v 0.019994 0.095106 0.618296
v 0.038031 0.080902 0.618296
v 0.052346 0.058779 0.618296
v 0.061536 0.030902 0.618296
v 0.064703 0.000000 0.618296
v 0.061536 -0.030902 0.370978
v 0.052346 -0.058779 0.370978
v 0.038031 -0.080902 0.370978
v 0.019994 -0.095106 0.370978
v 0.000000 -0.100000 0.370978
v -0.019994 -0.095106 0.370978
v -0.038031 -0.080902 0.370978
v -0.052346 -0.058779 0.370978
v -0.061536 -0.030902 0.370978
v -0.064703 0.000000 0.370978
v -0.061536 0.030902 0.370978
v -0.052346 0.058779 0.370978
v -0.038031 0.080902 0.370978
v -0.019994 0.095106 0.370978
v -0.000000 0.100000 0.370978
v 0.019994 0.095106 0.370978
v 0.038031 0.080902 0.370978
v 0.052346 0.058779 0.370978
v 0.061536 0.030902 0.370978
v 0.064703 0.000000 0.370978
v 0.061536 -0.030902 0.123659
v 0.052346 -0.058779 0.123659
v 0.038031 -0.080902 0.123659
v 0.019994 -0.095106 0.123659
v 0.000000 -0.100000 0.123659
v -0.019994 -0.095106 0.123659
v -0.038031 -0.080902 0.123659
v -0.052346 -0.058779 0.123659
v -0.061536 -0.030902 0.123659
v -0.064703 0.000000 0.123659
v -0.061536 0.030902 0.123659
v -0.052346 0.058779 0.123659
v -0.038031 0.080902 0.123659
v -0.019994 0.095106 0.123659
v -0.000000 0.100000 0.123659
v 0.019994 0.095106 0.123659
v 0.038031 0.080902 0.123659
v 0.052346 0.058779 0.123659
v 0.061536 0.030902 0.123659
v 0.064703 0.000000 0.123659
v 0.061536 -0.030902 -0.123659
v 0.052346 -0.058779 -0.123659
v 0.038031 -0.080902 -0.123659
v 0.019994 -0.095106 -0.123659
v 0.000000 -0.100000 -0.123659
v -0.019994 -0.095106 -0.123659
v -0.038031 -0.080902 -0.123659
v -0.052346 -0.058779 -0.123659
v -0.061536 -0.030902 -0.123659
v -0.064703 0.000000 -0.123659
v -0.061536 0.030902 -0.123659
v -0.052346 0.058779 -0.123659
v -0.038031 0.080902 -0.123659
v -0.019994 0.095106 -0.123659
v -0.000000 0.100000 -0.123659
v 0.019994 0.095106 -0.123659
v 0.038031 0.080902 -0.123659
v 0.052346 0.058779 -0.123659
v 0.061536 0.030902 -0.123659
v 0.064703 0.000000 -0.123659
v 0.061536 -0.030902 -0.370978
v 0.052346 -0.058779 -0.370978
v 0.038031 -0.080902 -0.370978
v 0.019994 -0.095106 -0.370978
v 0.000000 -0.100000 -0.370978
v -0.019994 -0.095106 -0.370978
v -0.038031 -0.080902 -0.370978
v -0.052346 -0.058779 -0.370978
v -0.061536 -0.030902 -0.370978
v -0.064703 0.000000 -0.370978
v -0.061536 0.030902 -0.370978
v -0.052346 0.058779 -0.370978
v -0.038031 0.080902 -0.370978
v -0.019994 0.095106 -0.370978
v -0.000000 0.100000 -0.370978
v 0.019994 0.095106 -0.370978
v 0.038031 0.080902 -0.370978
v 0.052346 0.058779 -0.370978
v 0.061536 0.030902 -0.370978
v 0.064703 0.000000 -0.370978
v 0.061536 -0.030902 -0.618296
v 0.052346 -0.058779 -0.618296
v 0.038031 -0.080902 -0.618296
v 0.019994 -0.095106 -0.618296
v 0.000000 -0.100000 -0.618296
v -0.019994 -0.095106 -0.618296
v -0.038031 -0.080902 -0.618296
v -0.052346 -0.058779 -0.618296
v -0.061536 -0.030902 -0.618296
v -0.064703 0.000000 -0.618296
v -0.061536 0.030902 -0.618296
v -0.052346 0.058779 -0.618296
v -0.038031 0.080902 -0.618296
v -0.019994 0.095106 -0.618296
v -0.000000 0.100000 -0.618296
v 0.019994 0.095106 -0.618296
v 0.038031 0.080902 -0.618296
v 0.052346 0.058779 -0.618296
v 0.061536 0.030902 -0.618296
v 0.064703 0.000000 -0.618296
v 0.061536 -0.030902 -0.865615
v 0.052346 -0.058779 -0.865615
v 0.038031 -0.080902 -0.865615
v 0.019994 -0.095106 -0.865615
v 0.000000 -0.100000 -0.865615
v -0.019994 -0.095106 -0.865615
v -0.038031 -0.080902 -0.865615
v -0.052346 -0.058779 -0.865615
v -0.061536 -0.030902 -0.865615
v -0.064703 0.000000 -0.865615
v -0.061536 0.030902 -0.865615
v -0.052346 0.058779 -0.865615
v -0.038031 0.080902 -0.865615
v -0.019994 0.095106 -0.865615
v -0.000000 0.100000 -0.865615
v 0.019994 0.095106 -0.865615
v 0.038031 0.080902 -0.865615
v 0.052346 0.058779 -0.865615
v 0.061536 0.030902 -0.865615
v 0.064703 0.000000 -0.865615
v 0.061536 -0.030902 -1.112933
v 0.052346 -0.058779 -1.112933
v 0.038031 -0.080902 -1.112933
v 0.019994 -0.095106 -1.112933
v 0.000000 -0.100000 -1.112933
v -0.019994 -0.095106 -1.112933
v -0.038031 -0.080902 -1.112933
v -0.052346 -0.058779 -1.112933
v -0.061536 -0.030902 -1.112933
v -0.064703 0.000000 -1.112933
v -0.061536 0.030902 -1.112933
v -0.052346 0.058779 -1.112933
v -0.038031 0.080902 -1.112933
v -0.019994 0.095106 -1.112933
v -0.000000 0.100000 -1.112933
v 0.019994 0.095106 -1.112933
v 0.038031 0.080902 -1.112933
v 0.052346 0.058779 -1.112933
v 0.061536 0.030902 -1.112933
v 0.064703 0.000000 -1.112933
v 0.061536 -0.030902 -1.360252
v 0.052346 -0.058779 -1.360252
v 0.038031 -0.080902 -1.360252
v 0.019994 -0.095106 -1.360252
v 0.000000 -0.100000 -1.360252
v -0.019994 -0.095106 -1.360252
v -0.038031 -0.080902 -1.360252
v -0.052346 -0.058779 -1.360252
v -0.061536 -0.030902 -1.360252
v -0.064703 0.000000 -1.360252
v -0.061536 0.030902 -1.360252
v -0.052346 0.058779 -1.360252
v -0.038031 0.080902 -1.360252
v -0.019994 0.095106 -1.360252
v -0.000000 0.100000 -1.360252
v 0.019994 0.095106 -1.360252
v 0.038031 0.080902 -1.360252
v 0.052346 0.058779 -1.360252
v 0.061536 0.030902 -1.360252
v 0.064703 0.000000 -1.360252
v 0.061536 -0.030902 -1.607570
v 0.052346 -0.058779 -1.607570
v 0.038031 -0.080902 -1.607570
v 0.019994 -0.095106 -1.607570
v 0.000000 -0.100000 -1.607570
v -0.019994 -0.095106 -1.607570
v -0.038031 -0.080902 -1.607570
v -0.052346 -0.058779 -1.607570
v -0.061536 -0.030902 -1.607570
v -0.064703 0.000000 -1.607570
v -0.061536 0.030902 -1.607570
v -0.052346 0.058779 -1.607570
v -0.038031 0.080902 -1.607570
v -0.019994 0.095106 -1.607570
v -0.000000 0.100000 -1.607570
v 0.019994 0.095106 -1.607570
v 0.038031 0.080902 -1.607570
v 0.052346 0.058779 -1.607570
v 0.061536 0.030902 -1.607570
v 0.064703 0.000000 -1.607570
v -0.000000 0.000000 1.607570
v 0.000000 0.000000 -1.607570
vt 0.237367 0.199469
vt 0.319125 0.201794
vt 0.348475 0.275148
vt 0.312027 0.332214
vt 0.316888 0.065903
vt 0.338986 0.121041
vt 0.353300 0.274580
vt 0.326995 0.200563
vt 0.320853 0.335015
vt 0.352557 0.280846
vt 0.533742 0.340328
vt 0.583910 0.203560
vt 0.324615 0.062261
vt 0.344997 0.118233
vt 0.345140 0.122599
vt 0.316826 0.057257
vt 0.416979 0.197109
vt 0.502088 0.200894
vt 0.448954 0.325324
vt 0.414451 0.275150
vt 0.412305 0.120361
vt 0.447731 0.081560
vt 0.451329 0.332544
vt 0.507842 0.200747
vt 0.441586 0.330211
vt 0.408979 0.277651
vt 0.408611 0.273417
vt 0.409960 0.197169
vt 0.440541 0.077275
vt 0.406870 0.116323
vt 0.450356 0.075034
vt 0.406107 0.122384
vt 0.156768 0.994962
vt 0.147922 0.995015
vt 0.147401 0.918822
vt 0.156264 0.918781
vt 0.140305 0.995064
vt 0.139768 0.918865
vt 0.147130 0.842530
vt 0.156063 0.842523
vt 0.166295 0.994911
vt 0.165808 0.918747
vt 0.134155 0.995106
vt 0.133604 0.918906
vt 0.139413 0.842560
vt 0.148201 0.766312
vt 0.157151 0.766296
vt 0.165666 0.842542
vt 0.175826 0.994864
vt 0.175352 0.918723
vt 0.133148 0.842601
vt 0.140243 0.766353
vt 0.148287 0.690300
vt 0.157305 0.690265
vt 0.166664 0.766318
vt 0.175262 0.842582
vt 0.184680 0.994822
vt 0.184215 0.918707
vt 0.133417 0.766406
vt 0.140191 0.690345
vt 0.147766 0.614245
vt 0.156811 0.614187
vt 0.166853 0.690244
vt 0.176182 0.766386
vt 0.184171 0.842649
vt 0.192309 0.994787
vt 0.191849 0.918697
vt 0.133138 0.690393
vt 0.139646 0.614301
vt 0.147165 0.538129
vt 0.156207 0.538061
vt 0.166382 0.614130
vt 0.176404 0.690239
vt 0.185147 0.766488
vt 0.191854 0.842734
vt 0.198471 0.994758
vt 0.198013 0.918691
vt 0.132572 0.614352
vt 0.139047 0.538190
vt 0.146556 0.461991
vt 0.155595 0.461921
vt 0.165775 0.537991
vt 0.175953 0.614077
vt 0.185432 0.690250
vt 0.193126 0.766613
vt 0.198083 0.842827
vt 0.131974 0.538245
vt 0.138441 0.462055
vt 0.145950 0.385848
vt 0.154988 0.385776
vt 0.165161 0.461846
vt 0.175343 0.537921
vt 0.184996 0.614029
vt 0.193539 0.690270
vt 0.199978 0.766745
vt 0.131371 0.462110
vt 0.137837 0.385912
vt 0.145345 0.309703
vt 0.154383 0.309631
vt 0.164552 0.385701
vt 0.174726 0.461772
vt 0.184383 0.537856
vt 0.193113 0.613987
vt 0.200605 0.690295
vt 0.130767 0.385968
vt 0.137232 0.309767
vt 0.144741 0.233558
vt 0.153778 0.233486
vt 0.163947 0.309556
vt 0.174117 0.385625
vt 0.183765 0.461702
vt 0.192498 0.537797
vt 0.200183 0.613951
vt 0.130164 0.309823
vt 0.136628 0.233622
vt 0.144137 0.157413
vt 0.153174 0.157341
vt 0.163342 0.233411
vt 0.173511 0.309480
vt 0.183154 0.385554
vt 0.191878 0.461639
vt 0.199567 0.537746
vt 0.129560 0.233678
vt 0.136024 0.157477
vt 0.143533 0.081268
vt 0.152570 0.081196
vt 0.162738 0.157265
vt 0.172906 0.233335
vt 0.182548 0.309408
vt 0.191267 0.385490
vt 0.198947 0.461584
vt 0.128956 0.157533
vt 0.135420 0.081332
vt 0.142929 0.005123
vt 0.151966 0.005051
vt 0.162134 0.081121
vt 0.172302 0.157190
vt 0.181943 0.233263
vt 0.190661 0.309344
vt 0.198336 0.385434
vt 0.128352 0.081388
vt 0.134816 0.005187
vt 0.161530 0.004976
vt 0.171698 0.081045
vt 0.181339 0.157118
vt 0.190056 0.233199
vt 0.197729 0.309288
vt 0.127748 0.005244
vt 0.171094 0.004900
vt 0.180735 0.080973
vt 0.189452 0.157054
vt 0.197125 0.233143
vt 0.180131 0.004828
vt 0.188848 0.080909
vt 0.196520 0.156998
vt 0.188244 0.004764
vt 0.195916 0.080853
vt 0.195313 0.004708
vt 0.117938 0.995229
vt 0.110321 0.995291
vt 0.109717 0.919103
vt 0.117350 0.919033
vt 0.101477 0.995368
vt 0.100855 0.919194
vt 0.108833 0.842822
vt 0.116550 0.842733
vt 0.124087 0.995181
vt 0.123514 0.918981
vt 0.091951 0.995456
vt 0.091313 0.919303
vt 0.099900 0.842952
vt 0.106590 0.766631
vt 0.114547 0.766550
vt 0.122815 0.842679
vt 0.082422 0.995548
vt 0.081771 0.919420
vt 0.090297 0.843120
vt 0.097640 0.766753
vt 0.105344 0.690629
vt 0.113439 0.690550
vt 0.121374 0.766498
vt 0.073571 0.995636
vt 0.072910 0.919537
vt 0.080701 0.843308
vt 0.088127 0.766919
vt 0.096325 0.690731
vt 0.104692 0.614581
vt 0.112811 0.614510
vt 0.120492 0.690490
vt 0.065944 0.995714
vt 0.065279 0.919642
vt 0.071791 0.843512
vt 0.078608 0.767132
vt 0.086778 0.690857
vt 0.095647 0.614664
vt 0.104102 0.538467
vt 0.112219 0.538401
vt 0.119886 0.614451
vt 0.059784 0.995776
vt 0.059117 0.919729
vt 0.064108 0.843717
vt 0.069647 0.767371
vt 0.077230 0.690998
vt 0.086077 0.614756
vt 0.095060 0.538542
vt 0.103508 0.462331
vt 0.111623 0.462266
vt 0.119292 0.538344
vt 0.057879 0.843905
vt 0.061670 0.767618
vt 0.068202 0.691146
vt 0.076507 0.614853
vt 0.085492 0.538622
vt 0.094469 0.462403
vt 0.102909 0.386188
vt 0.111022 0.386124
vt 0.118693 0.462210
vt 0.054821 0.767855
vt 0.060094 0.691290
vt 0.067466 0.614946
vt 0.075924 0.538703
vt 0.084904 0.462480
vt 0.093871 0.386260
vt 0.102306 0.310044
vt 0.110419 0.309980
vt 0.118091 0.386068
vt 0.053028 0.691423
vt 0.059351 0.615030
vt 0.066885 0.538780
vt 0.075339 0.462557
vt 0.084307 0.386336
vt 0.093269 0.310116
vt 0.101703 0.233899
vt 0.109816 0.233835
vt 0.117488 0.309924
vt 0.052281 0.615103
vt 0.058771 0.538849
vt 0.066300 0.462630
vt 0.074742 0.386412
vt 0.083705 0.310192
vt 0.092666 0.233971
vt 0.101099 0.157754
vt 0.109212 0.157690
vt 0.116884 0.233779
vt 0.051701 0.538909
vt 0.058187 0.462695
vt 0.065705 0.386484
vt 0.074141 0.310268
vt 0.083102 0.234047
vt 0.092062 0.157826
vt 0.100495 0.081609
vt 0.108608 0.081545
vt 0.116280 0.157634
vt 0.051118 0.462752
vt 0.057592 0.386549
vt 0.065104 0.310339
vt 0.073538 0.234123
vt 0.082498 0.157902
vt 0.091458 0.081681
vt 0.099891 0.005464
vt 0.108004 0.005400
vt 0.115677 0.081489
vt 0.050523 0.386605
vt 0.056991 0.310404
vt 0.064501 0.234194
vt 0.072934 0.157978
vt 0.081894 0.081757
vt 0.090854 0.005536
vt 0.115073 0.005344
vt 0.049922 0.310460
vt 0.056388 0.234259
vt 0.063897 0.158049
vt 0.072330 0.081833
vt 0.081290 0.005612
vt 0.049319 0.234315
vt 0.055784 0.158114
vt 0.063293 0.081904
vt 0.071726 0.005688
vt 0.048716 0.158170
vt 0.055180 0.081969
vt 0.062689 0.005759
vt 0.048112 0.082025
vt 0.054576 0.005824
vt 0.047508 0.005880
vt 0.129121 0.995143
vt 0.128559 0.918943
vt 0.127982 0.842640
vt 0.127395 0.766456
vt 0.126815 0.690441
vt 0.126228 0.614401
vt 0.125633 0.538294
vt 0.125032 0.462160
vt 0.124429 0.386018
vt 0.123826 0.309874
vt 0.123222 0.233729
vt 0.122618 0.157584
vt 0.122014 0.081439
vt 0.121410 0.005294
vt 0.054739 0.995827
vt 0.203059 0.918686
vt 0.203214 0.842913
vt 0.206028 0.766871
vt 0.206942 0.690318
vt 0.206522 0.613918
vt 0.205905 0.537699
vt 0.205285 0.461535
vt 0.204673 0.385384
vt 0.204067 0.309238
vt 0.203462 0.233093
vt 0.202858 0.156947
vt 0.202254 0.080802
vt 0.201650 0.004657
vt 0.619980 0.013754
vt 0.621502 0.022486
vt 0.605972 0.030789
vt 0.621504 0.032031
vt 0.617087 0.006689
vt 0.619986 0.041454
vt 0.613105 0.001984
vt 0.617096 0.049833
vt 0.608425 0.000098
vt 0.613117 0.056348
vt 0.603505 0.001216
vt 0.608438 0.060362
vt 0.598827 0.005230
vt 0.603518 0.061480
vt 0.594848 0.011745
vt 0.598839 0.059594
vt 0.591958 0.020124
vt 0.594857 0.054889
vt 0.590439 0.029547
vt 0.591964 0.047824
vt 0.590441 0.039092
vt 0.661292 0.038323
vt 0.659351 0.047150
vt 0.641475 0.030788
vt 0.655660 0.054375
vt 0.661293 0.028759
vt 0.650581 0.059291
vt 0.659355 0.019394
vt 0.644610 0.061416
vt 0.655665 0.011143
vt 0.638333 0.060545
vt 0.650587 0.004816
vt 0.632363 0.056760
vt 0.644617 0.001031
vt 0.627285 0.050433
vt 0.638340 0.000160
vt 0.623596 0.042182
vt 0.632369 0.002285
vt 0.621657 0.032817
vt 0.627290 0.007201
vt 0.621659 0.023253
vt 0.623599 0.014426
vt 0.311946 0.340409
vt 0.229435 0.199211
vt 0.536273 0.058964
vt 0.041774 0.082075
vt 0.041170 0.005930
vt 0.042378 0.158220
vt 0.042982 0.234365
vt 0.043585 0.310510
vt 0.044185 0.386655
vt 0.044781 0.462803
vt 0.045364 0.538962
vt 0.045944 0.615168
vt 0.046693 0.691543
vt 0.048771 0.768074
vt 0.052748 0.844070
vt 0.054073 0.919800
vt 0.203516 0.994734
vn -0.692572 -0.721348 -0.000682
vn -0.692572 -0.721348 -0.000682
vn -0.692572 -0.721348 -0.000682
vn -0.692572 -0.721348 -0.000682
vn 0.000272 -0.709482 0.704723
vn 0.000272 -0.709482 0.704723
vn 0.000272 -0.709482 0.704723
vn 0.000272 -0.709482 0.704723
vn -0.704064 -0.047975 0.708514
vn -0.704064 -0.047975 0.708514
vn -0.705855 0.000497 0.708356
vn -0.705856 0.000503 0.708356
vn 0.694490 -0.719502 -0.000451
vn 0.694490 -0.719502 -0.000451
vn 0.694490 -0.719502 -0.000451
vn 0.694490 -0.719502 -0.000451
vn 0.702150 -0.048122 0.710401
vn 0.702151 -0.048122 0.710401
vn 0.704904 0.000371 0.709303
vn 0.704903 0.000359 0.709304
vn -0.705992 0.048603 0.706550
vn -0.705992 0.048603 0.706550
vn -0.000283 0.709553 0.704652
vn -0.000283 0.709553 0.704652
vn -0.000283 0.709553 0.704652
vn -0.000283 0.709553 0.704652
vn -0.696313 0.717738 0.000231
vn -0.696313 0.717738 0.000231
vn -0.696313 0.717738 0.000231
vn -0.696313 0.717738 0.000231
vn 0.705992 0.048603 0.706550
vn 0.705992 0.048603 0.706550
vn 0.696313 0.717738 -0.000231
vn 0.696313 0.717738 -0.000231
vn 0.696313 0.717738 -0.000231
vn 0.696313 0.717738 -0.000231
vn -0.705990 0.048603 -0.706553
vn -0.705990 0.048603 -0.706553
vn -0.706825 0.000000 -0.707389
vn -0.706825 0.000000 -0.707389
vn 0.000283 0.709549 -0.704656
vn 0.000283 0.709549 -0.704656
vn 0.000283 0.709549 -0.704656
vn 0.000283 0.709549 -0.704656
vn 0.705990 0.048603 -0.706553
vn 0.705990 0.048603 -0.706553
vn 0.706825 -0.000000 -0.707389
vn 0.706825 -0.000000 -0.707389
vn -0.705990 -0.048603 -0.706553
vn -0.705990 -0.048603 -0.706553
vn -0.000283 -0.709549 -0.704656
vn -0.000283 -0.709549 -0.704656
vn -0.000283 -0.709549 -0.704656
vn -0.000283 -0.709549 -0.704656
vn 0.705990 -0.048603 -0.706553
vn 0.705990 -0.048603 -0.706553
vn 0.000000 -0.000011 1.000000
vn 0.000000 -0.000007 1.000000
vn 0.000000 0.022888 0.999738
vn 0.000000 0.022888 0.999738
vn 0.000000 1.000000 -0.000000
vn 0.000000 1.000000 -0.000000
vn 0.000000 1.000000 -0.000000
vn 0.000000 1.000000 -0.000000
vn 0.000000 0.022889 -0.999738
vn 0.000000 0.022889 -0.999738
vn 0.000000 0.000000 -1.000000
vn 0.000000 0.000000 -1.000000
vn 0.000000 -1.000000 -0.000000
vn 0.000000 -1.000000 -0.000000
vn 0.000000 -1.000000 -0.000000
vn 0.000000 -1.000000 -0.000000
vn 1.000000 -0.000043 -0.000000
vn 1.000000 -0.000027 -0.000000
vn 0.998947 0.045882 0.000000
vn 0.998947 0.045882 0.000000
vn -1.000000 -0.000027 -0.000000
vn -1.000000 -0.000043 -0.000000
vn -0.998947 0.045882 0.000000
vn -0.998947 0.045882 0.000000
vn 0.000000 -0.022888 0.999738
vn 0.000000 -0.022888 0.999738
vn 0.998947 -0.045882 -0.000000
vn 0.998947 -0.045882 -0.000000
vn 0.000000 -0.022889 -0.999738
vn 0.000000 -0.022889 -0.999738
vn -0.998947 -0.045882 -0.000000
vn -0.998947 -0.045882 -0.000000
vn -0.559573 -0.598819 0.572969
vn -0.559573 -0.598819 0.572969
vn -0.559573 -0.598819 0.572969
vn 0.555541 -0.594785 0.581038
vn 0.555541 -0.594785 0.581038
vn 0.555541 -0.594785 0.581038
vn -0.567802 0.595142 0.568688
vn -0.567802 0.595142 0.568688
vn -0.567802 0.595142 0.568688
vn 0.572022 0.587013 0.572893
vn 0.572022 0.587013 0.572893
vn 0.572022 0.587013 0.572893
vn -0.572015 0.587015 -0.572899
vn -0.572015 0.587015 -0.572899
vn -0.572015 0.587015 -0.572899
vn 0.567802 0.595138 -0.568693
vn 0.567802 0.595138 -0.568693
vn 0.567802 0.595138 -0.568693
vn -0.567802 -0.595138 -0.568693
vn -0.567802 -0.595138 -0.568693
vn -0.567802 -0.595138 -0.568693
vn 0.572015 -0.587015 -0.572899
vn 0.572015 -0.587015 -0.572899
vn 0.572015 -0.587015 -0.572899
vn 0.986748 -0.162260 0.000000
vn 0.938563 -0.345108 0.000000
vn 0.938035 -0.346538 0.001410
vn 0.986624 -0.163001 0.001725
vn 0.820549 -0.571577 0.000000
vn 0.819281 -0.573392 0.000925
vn 0.540255 -0.841501 0.000000
vn 0.538440 -0.842664 0.000377
vn 0.000000 -1.000000 0.000000
vn 0.000000 -1.000000 0.000090
vn -0.540256 -0.841501 0.000000
vn -0.538441 -0.842664 0.000377
vn -0.820549 -0.571577 0.000000
vn -0.819281 -0.573392 0.000925
vn -0.938563 -0.345108 0.000000
vn -0.938035 -0.346537 0.001410
vn -0.986748 -0.162261 0.000000
vn -0.986624 -0.163002 0.001725
vn -1.000000 0.000000 0.000000
vn -0.999998 0.000000 0.001833
vn -0.986748 0.162261 0.000000
vn -0.986624 0.163002 0.001725
vn -0.938563 0.345108 0.000000
vn -0.938035 0.346538 0.001410
vn -0.820549 0.571577 0.000000
vn -0.819281 0.573392 0.000925
vn -0.540256 0.841501 0.000000
vn -0.538440 0.842664 0.000377
vn 0.000000 1.000000 0.000000
vn 0.000000 1.000000 0.000090
vn 0.540256 0.841501 0.000000
vn 0.538441 0.842663 0.000377
vn 0.820549 0.571577 0.000000
vn 0.819281 0.573392 0.000925
vn 0.938563 0.345108 0.000000
vn 0.938035 0.346538 0.001410
vn 0.986748 0.162261 0.000000
vn 0.986624 0.163002 0.001725
vn 1.000000 0.000000 0.000000
vn 0.999998 0.000000 0.001833
vn 0.931022 -0.364586 0.016602
vn 0.984807 -0.172448 0.020446
vn 0.803028 -0.595845 0.010740
vn 0.516107 -0.856513 0.004282
vn 0.000000 -1.000000 0.001014
vn -0.516108 -0.856513 0.004282
vn -0.803028 -0.595845 0.010740
vn -0.931022 -0.364585 0.016602
vn -0.984806 -0.172448 0.020446
vn -0.999763 0.000000 0.021773
vn -0.984806 0.172448 0.020446
vn -0.931022 0.364586 0.016602
vn -0.803028 0.595845 0.010740
vn -0.516108 0.856513 0.004282
vn 0.000000 1.000000 0.001014
vn 0.516108 0.856513 0.004282
vn 0.803028 0.595845 0.010740
vn 0.931022 0.364586 0.016602
vn 0.984806 0.172448 0.020446
vn 0.999763 0.000000 0.021773
vn 0.916926 -0.398579 0.019518
vn 0.981331 -0.190790 0.024279
vn 0.771945 -0.635569 0.012358
vn 0.477386 -0.878681 0.004751
vn 0.000000 -0.999999 0.001088
vn -0.477386 -0.878681 0.004751
vn -0.771945 -0.635569 0.012358
vn -0.916926 -0.398579 0.019518
vn -0.981331 -0.190790 0.024279
vn -0.999664 0.000000 0.025930
vn -0.981331 0.190791 0.024279
vn -0.916926 0.398579 0.019518
vn -0.771945 0.635569 0.012358
vn -0.477386 0.878681 0.004751
vn 0.000000 0.999999 0.001088
vn 0.477386 0.878681 0.004751
vn 0.771945 0.635569 0.012358
vn 0.916927 0.398579 0.019518
vn 0.981331 0.190791 0.024279
vn 0.999664 0.000001 0.025930
vn 0.906986 -0.421136 0.004489
vn 0.979096 -0.203318 0.005635
vn 0.750868 -0.660446 0.002793
vn 0.453247 -0.891384 0.001048
vn 0.000000 -1.000000 0.000237
vn -0.453248 -0.891384 0.001048
vn -0.750869 -0.660446 0.002793
vn -0.906986 -0.421136 0.004489
vn -0.979096 -0.203319 0.005635
vn -0.999982 0.000000 0.006035
vn -0.979096 0.203319 0.005635
vn -0.906986 0.421136 0.004489
vn -0.750868 0.660446 0.002793
vn -0.453248 0.891384 0.001048
vn 0.000000 1.000000 0.000237
vn 0.453248 0.891384 0.001048
vn 0.750869 0.660446 0.002793
vn 0.906986 0.421136 0.004489
vn 0.979096 0.203319 0.005635
vn 0.999982 0.000001 0.006035
vn 0.904992 -0.425430 0.000000
vn 0.978608 -0.205734 0.000000
vn 0.746791 -0.665059 0.000000
vn 0.448767 -0.893649 0.000000
vn 0.000000 -1.000000 0.000000
vn -0.448767 -0.893649 0.000000
vn -0.746791 -0.665059 0.000000
vn -0.904992 -0.425429 0.000000
vn -0.978608 -0.205734 0.000000
vn -1.000000 0.000000 0.000000
vn -0.978608 0.205734 0.000000
vn -0.904991 0.425430 0.000000
vn -0.746791 0.665059 0.000000
vn -0.448767 0.893649 0.000000
vn 0.000000 1.000000 0.000000
vn 0.448767 0.893649 0.000000
vn 0.746791 0.665059 0.000000
vn 0.904992 0.425430 0.000000
vn 0.978608 0.205734 0.000000
vn 1.000000 0.000001 0.000000
vn 0.904992 -0.425430 0.000000
vn 0.978608 -0.205734 0.000000
vn 0.746791 -0.665059 0.000000
vn 0.448767 -0.893649 0.000000
vn 0.000000 -1.000000 0.000000
vn -0.448767 -0.893649 0.000000
vn -0.746791 -0.665059 0.000000
vn -0.904992 -0.425429 0.000000
vn -0.978608 -0.205734 0.000000
vn -1.000000 0.000000 0.000000
vn -0.978608 0.205734 0.000000
vn -0.904991 0.425430 0.000000
vn -0.746791 0.665059 0.000000
vn -0.448767 0.893649 0.000000
vn 0.000000 1.000000 0.000000
vn 0.448767 0.893649 0.000000
vn 0.746791 0.665059 0.000000
vn 0.904992 0.425430 0.000000
vn 0.978608 0.205734 0.000000
vn 1.000000 0.000001 0.000000
vn 0.904992 -0.425430 0.000000
vn 0.978608 -0.205734 0.000000
vn 0.746791 -0.665059 0.000000
vn 0.448767 -0.893649 0.000000
vn 0.000000 -1.000000 0.000000
vn -0.448767 -0.893649 0.000000
vn -0.746791 -0.665059 0.000000
vn -0.904992 -0.425429 0.000000
vn -0.978608 -0.205734 0.000000
vn -1.000000 0.000000 0.000000
vn -0.978608 0.205734 0.000000
vn -0.904992 0.425430 0.000000
vn -0.746791 0.665059 0.000000
vn -0.448767 0.893649 0.000000
vn 0.000000 1.000000 0.000000
vn 0.448767 0.893649 0.000000
vn 0.746791 0.665059 0.000000
vn 0.904992 0.425430 0.000000
vn 0.978608 0.205734 0.000000
vn 1.000000 0.000001 0.000000
vn 0.904992 -0.425430 0.000000
vn 0.978608 -0.205734 0.000000
vn 0.746791 -0.665059 0.000000
vn 0.448767 -0.893649 0.000000
vn 0.000000 -1.000000 0.000000
vn -0.448767 -0.893649 0.000000
vn -0.746791 -0.665059 0.000000
vn -0.904992 -0.425429 0.000000
vn -0.978608 -0.205734 0.000000
vn -1.000000 0.000000 0.000000
vn -0.978608 0.205734 0.000000
vn -0.904992 0.425430 0.000000
vn -0.746791 0.665059 0.000000
vn -0.448767 0.893649 0.000000
vn 0.000000 1.000000 0.000000
vn 0.448767 0.893649 0.000000
vn 0.746791 0.665059 0.000000
vn 0.904992 0.425430 0.000000
vn 0.978608 0.205734 0.000000
vn 1.000000 0.000001 0.000000
vn 0.904992 -0.425430 0.000000
vn 0.978608 -0.205734 0.000000
vn 0.746791 -0.665059 0.000000
vn 0.448767 -0.893649 0.000000
vn 0.000000 -1.000000 0.000000
vn -0.448767 -0.893649 0.000000
vn -0.746791 -0.665059 0.000000
vn -0.904992 -0.425429 0.000000
vn -0.978608 -0.205734 0.000000
vn -1.000000 0.000000 0.000000
vn -0.978608 0.205734 0.000000
vn -0.904991 0.425430 0.000000
vn -0.746791 0.665059 0.000000
vn -0.448767 0.893649 0.000000
vn 0.000000 1.000000 0.000000
vn 0.448767 0.893649 0.000000
vn 0.746791 0.665059 0.000000
vn 0.904992 0.425430 0.000000
vn 0.978608 0.205734 0.000000
vn 1.000000 0.000001 0.000000
vn 0.904992 -0.425430 0.000000
vn 0.978608 -0.205734 0.000000
vn 0.746791 -0.665059 0.000000
vn 0.448767 -0.893649 0.000000
vn 0.000000 -1.000000 0.000000
vn -0.448767 -0.893649 0.000000
vn -0.746791 -0.665059 0.000000
vn -0.904992 -0.425429 0.000000
vn -0.978608 -0.205734 0.000000
vn -1.000000 0.000000 0.000000
vn -0.978608 0.205734 0.000000
vn -0.904991 0.425430 0.000000
vn -0.746791 0.665059 0.000000
vn -0.448767 0.893649 0.000000
vn 0.000000 1.000000 0.000000
vn 0.448767 0.893649 0.000000
vn 0.746791 0.665059 0.000000
vn 0.904992 0.425430 0.000000
vn 0.978608 0.205734 0.000000
vn 1.000000 0.000001 0.000000
vn 0.904992 -0.425430 0.000000
vn 0.978608 -0.205734 0.000000
vn 0.746791 -0.665059 0.000000
vn 0.448767 -0.893649 0.000000
vn 0.000000 -1.000000 0.000000
vn -0.448767 -0.893649 0.000000
vn -0.746791 -0.665059 0.000000
vn -0.904992 -0.425429 0.000000
vn -0.978608 -0.205734 0.000000
vn -1.000000 0.000000 0.000000
vn -0.978608 0.205734 0.000000
vn -0.904992 0.425430 0.000000
vn -0.746791 0.665059 0.000000
vn -0.448767 0.893649 0.000000
vn 0.000000 1.000000 0.000000
vn 0.448767 0.893649 0.000000
vn 0.746791 0.665059 0.000000
vn 0.904992 0.425430 0.000000
vn 0.978608 0.205734 0.000000
vn 1.000000 0.000001 0.000000
vn 0.904992 -0.425430 0.000000
vn 0.978608 -0.205734 0.000000
vn 0.746791 -0.665059 0.000000
vn 0.448767 -0.893649 0.000000
vn 0.000000 -1.000000 0.000000
vn -0.448767 -0.893649 0.000000
vn -0.746791 -0.665059 0.000000
vn -0.904992 -0.425429 0.000000
vn -0.978608 -0.205734 0.000000
vn -1.000000 0.000000 0.000000
vn -0.978608 0.205734 0.000000
vn -0.904992 0.425430 0.000000
vn -0.746791 0.665059 0.000000
vn -0.448767 0.893649 0.000000
vn 0.000000 1.000000 0.000000
vn 0.448767 0.893649 0.000000
vn 0.746791 0.665059 0.000000
vn 0.904992 0.425430 0.000000
vn 0.978608 0.205734 0.000000
vn 1.000000 0.000001 0.000000
vn 0.904992 -0.425430 0.000000
vn 0.978608 -0.205734 0.000000
vn 0.746791 -0.665059 0.000000
vn 0.448767 -0.893649 0.000000
vn 0.000000 -1.000000 0.000000
vn -0.448767 -0.893649 0.000000
vn -0.746791 -0.665059 0.000000
vn -0.904992 -0.425429 0.000000
vn -0.978608 -0.205734 0.000000
vn -1.000000 0.000000 0.000000
vn -0.978608 0.205734 0.000000
vn -0.904992 0.425430 0.000000
vn -0.746791 0.665059 0.000000
vn -0.448767 0.893649 0.000000
vn 0.000000 1.000000 0.000000
vn 0.448767 0.893649 0.000000
vn 0.746791 0.665059 0.000000
vn 0.904992 0.425430 0.000000
vn 0.978608 0.205734 0.000000
vn 1.000000 0.000001 0.000000
vn -0.000003 0.000000 1.000000
vn -0.000006 0.000000 1.000000
vn -0.000001 0.000000 1.000000
vn 0.000000 0.000000 1.000000
vn 0.000000 0.000000 1.000000
vn 0.000000 0.000000 1.000000
vn 0.000000 0.000000 1.000000
vn 0.000000 0.000000 1.000000
vn 0.000000 0.000000 1.000000
vn 0.000000 0.000000 1.000000
vn 0.000000 0.000000 1.000000
vn 0.000006 0.000000 1.000000
vn -0.000011 0.000000 1.000000
vn -0.000006 0.000000 1.000000
vn 0.000000 0.000000 1.000000
vn 0.000000 0.000000 1.000000
vn 0.000000 0.000000 1.000000
vn 0.000000 0.000000 1.000000
vn 0.000000 0.000000 1.000000
vn 0.000000 0.000000 1.000000
vn 0.000000 0.000000 1.000000
vn -0.000002 0.000000 -1.000000
vn 0.000003 0.000000 -1.000000
vn -0.000001 0.000000 -1.000000
vn -0.000007 0.000000 -1.000000
vn -0.000006 0.000000 -1.000000
vn 0.000000 0.000000 -1.000000
vn 0.000000 0.000000 -1.000000
vn 0.000000 0.000000 -1.000000
vn 0.000000 0.000000 -1.000000
vn 0.000000 0.000000 -1.000000
vn 0.000000 0.000000 -1.000000
vn 0.000002 0.000000 -1.000000
vn -0.000003 0.000000 -1.000000
vn -0.000003 0.000000 -1.000000
vn 0.000000 0.000000 -1.000000
vn 0.000000 0.000000 -1.000000
vn 0.000000 0.000000 -1.000000
vn 0.000000 0.000000 -1.000000
vn 0.000000 0.000000 -1.000000
vn 0.000000 0.000000 -1.000000
vn 0.000000 0.000000 -1.000000
s off
g mace
usemtl initialShadingGroup
f 1/29/1 3/22/2 21/21/3 20/30/4
f 2/31/5 1/29/6 6/13/7 5/16/8
s 1
f 3/22/9 2/31/10 25/24/11 26/18/12
s off
f 4/5/13 6/13/14 23/14/15 22/6/16
s 2
f 5/16/17 4/5/18 28/1/19 27/356/20
s 1
f 7/23/21 9/19/22 26/18/12 25/24/11
s off
f 8/25/23 7/23/24 12/355/25 11/9/26
f 9/19/27 8/25/28 14/26/29 13/20/30
s 2
f 10/4/31 12/355/32 27/356/20 28/1/19
s off
f 11/9/33 10/4/34 18/3/35 17/10/36
s 3
f 13/20/37 15/27/38 29/28/39 30/17/40
s off
f 15/27/41 14/26/42 17/10/43 16/7/44
s 4
f 16/7/45 18/3/46 31/2/47 32/8/48
s 3
f 19/32/49 21/21/50 30/17/40 29/28/39
s off
f 20/30/51 19/32/52 24/15/53 23/14/54
s 4
f 22/6/55 24/15/56 32/8/48 31/2/47
s 5
f 25/24/57 27/12/58 12/11/59 7/23/60
s off
f 8/25/61 11/9/62 17/10/63 14/26/64
s 6
f 15/27/65 16/7/66 32/8/67 29/28/68
s off
f 20/30/69 23/14/70 6/13/71 1/29/72
s 7
f 28/1/73 31/2/74 18/3/75 10/4/76
s 8
f 30/17/77 26/18/78 9/19/79 13/20/80
s 5
f 2/31/81 5/357/82 27/12/58 25/24/57
s 7
f 4/5/83 22/6/84 31/2/74 28/1/73
s 6
f 29/28/68 32/8/67 24/15/85 19/32/86
s 8
f 21/21/87 3/22/88 26/18/78 30/17/77
s off
f 1/29/89 2/31/90 3/22/91
f 4/5/92 5/16/93 6/13/94
f 7/23/95 8/25/96 9/19/97
f 10/4/98 11/9/99 12/355/100
f 13/20/101 14/26/102 15/27/103
f 16/7/104 17/10/105 18/3/106
f 19/32/107 20/30/108 21/21/109
f 22/6/110 23/14/111 24/15/112
s 9
f 33/33/113 34/34/114 54/35/115 53/36/116
f 34/34/114 35/37/117 55/38/118 54/35/115
f 35/37/117 36/43/119 56/44/120 55/38/118
f 36/43/119 37/285/121 57/286/122 56/44/120
f 37/285/121 38/167/123 58/168/124 57/286/122
f 38/167/123 39/159/125 59/162/126 58/168/124
f 39/159/125 40/160/127 60/161/128 59/162/126
f 40/160/127 41/163/129 61/164/130 60/161/128
f 41/163/129 42/169/131 62/170/132 61/164/130
f 42/169/131 43/175/133 63/176/134 62/170/132
f 43/175/133 44/182/135 64/183/136 63/176/134
f 44/182/135 45/190/137 65/191/138 64/183/136
f 45/190/137 46/199/139 66/200/140 65/191/138
f 46/199/139 47/299/141 67/370/142 66/200/140
f 47/371/141 48/76/143 68/77/144 67/300/142
f 48/76/143 49/66/145 69/67/146 68/77/144
f 49/66/145 50/57/147 70/58/148 69/67/146
f 50/57/147 51/49/149 71/50/150 70/58/148
f 51/49/149 52/41/151 72/42/152 71/50/150
f 52/41/151 33/33/113 53/36/116 72/42/152
f 53/36/116 54/35/115 74/39/153 73/40/154
f 54/35/115 55/38/118 75/45/155 74/39/153
f 55/38/118 56/44/120 76/51/156 75/45/155
f 56/44/120 57/286/122 77/287/157 76/51/156
f 57/286/122 58/168/124 78/174/158 77/287/157
f 58/168/124 59/162/126 79/166/159 78/174/158
f 59/162/126 60/161/128 80/165/160 79/166/159
f 60/161/128 61/164/130 81/171/161 80/165/160
f 61/164/130 62/170/132 82/177/162 81/171/161
f 62/170/132 63/176/134 83/184/163 82/177/162
f 63/176/134 64/183/136 84/192/164 83/184/163
f 64/183/136 65/191/138 85/201/165 84/192/164
f 65/191/138 66/200/140 86/209/166 85/201/165
f 66/200/140 67/370/142 87/369/167 86/209/166
f 67/300/142 68/77/144 88/86/168 87/301/167
f 68/77/144 69/67/146 89/75/169 88/86/168
f 69/67/146 70/58/148 90/65/170 89/75/169
f 70/58/148 71/50/150 91/56/171 90/65/170
f 71/50/150 72/42/152 92/48/172 91/56/171
f 72/42/152 53/36/116 73/40/154 92/48/172
f 73/40/154 74/39/153 94/46/173 93/47/174
f 74/39/153 75/45/155 95/52/175 94/46/173
f 75/45/155 76/51/156 96/59/176 95/52/175
f 76/51/156 77/287/157 97/288/177 96/59/176
f 77/287/157 78/174/158 98/181/178 97/288/177
f 78/174/158 79/166/159 99/173/179 98/181/178
f 79/166/159 80/165/160 100/172/180 99/173/179
f 80/165/160 81/171/161 101/178/181 100/172/180
f 81/171/161 82/177/162 102/185/182 101/178/181
f 82/177/162 83/184/163 103/193/183 102/185/182
f 83/184/163 84/192/164 104/202/184 103/193/183
f 84/192/164 85/201/165 105/210/185 104/202/184
f 85/201/165 86/209/166 106/218/186 105/210/185
f 86/209/166 87/369/167 107/368/187 106/218/186
f 87/301/167 88/86/168 108/95/188 107/302/187
f 88/86/168 89/75/169 109/85/189 108/95/188
f 89/75/169 90/65/170 110/74/190 109/85/189
f 90/65/170 91/56/171 111/64/191 110/74/190
f 91/56/171 92/48/172 112/55/192 111/64/191
f 92/48/172 73/40/154 93/47/174 112/55/192
f 93/47/174 94/46/173 114/53/193 113/54/194
f 94/46/173 95/52/175 115/60/195 114/53/193
f 95/52/175 96/59/176 116/68/196 115/60/195
f 96/59/176 97/288/177 117/289/197 116/68/196
f 97/288/177 98/181/178 118/189/198 117/289/197
f 98/181/178 99/173/179 119/180/199 118/189/198
f 99/173/179 100/172/180 120/179/200 119/180/199
f 100/172/180 101/178/181 121/186/201 120/179/200
f 101/178/181 102/185/182 122/194/202 121/186/201
f 102/185/182 103/193/183 123/203/203 122/194/202
f 103/193/183 104/202/184 124/211/204 123/203/203
f 104/202/184 105/210/185 125/219/205 124/211/204
f 105/210/185 106/218/186 126/227/206 125/219/205
f 106/218/186 107/368/187 127/367/207 126/227/206
f 107/302/187 108/95/188 128/104/208 127/303/207
f 108/95/188 109/85/189 129/94/209 128/104/208
f 109/85/189 110/74/190 130/84/210 129/94/209
f 110/74/190 111/64/191 131/73/211 130/84/210
f 111/64/191 112/55/192 132/63/212 131/73/211
f 112/55/192 93/47/174 113/54/194 132/63/212
f 113/54/194 114/53/193 134/61/213 133/62/214
f 114/53/193 115/60/195 135/69/215 134/61/213
f 115/60/195 116/68/196 136/78/216 135/69/215
f 116/68/196 117/289/197 137/290/217 136/78/216
f 117/289/197 118/189/198 138/198/218 137/290/217
f 118/189/198 119/180/199 139/188/219 138/198/218
f 119/180/199 120/179/200 140/187/220 139/188/219
f 120/179/200 121/186/201 141/195/221 140/187/220
f 121/186/201 122/194/202 142/204/222 141/195/221
f 122/194/202 123/203/203 143/212/223 142/204/222
f 123/203/203 124/211/204 144/220/224 143/212/223
f 124/211/204 125/219/205 145/228/225 144/220/224
f 125/219/205 126/227/206 146/236/226 145/228/225
f 126/227/206 127/367/207 147/366/227 146/236/226
f 127/303/207 128/104/208 148/113/228 147/304/227
f 128/104/208 129/94/209 149/103/229 148/113/228
f 129/94/209 130/84/210 150/93/230 149/103/229
f 130/84/210 131/73/211 151/83/231 150/93/230
f 131/73/211 132/63/212 152/72/232 151/83/231
f 132/63/212 113/54/194 133/62/214 152/72/232
f 133/62/214 134/61/213 154/70/233 153/71/234
f 134/61/213 135/69/215 155/79/235 154/70/233
f 135/69/215 136/78/216 156/87/236 155/79/235
f 136/78/216 137/290/217 157/291/237 156/87/236
f 137/290/217 138/198/218 158/208/238 157/291/237
f 138/198/218 139/188/219 159/197/239 158/208/238
f 139/188/219 140/187/220 160/196/240 159/197/239
f 140/187/220 141/195/221 161/205/241 160/196/240
f 141/195/221 142/204/222 162/213/242 161/205/241
f 142/204/222 143/212/223 163/221/243 162/213/242
f 143/212/223 144/220/224 164/229/244 163/221/243
f 144/220/224 145/228/225 165/237/245 164/229/244
f 145/228/225 146/236/226 166/245/246 165/237/245
f 146/236/226 147/366/227 167/365/247 166/245/246
f 147/304/227 148/113/228 168/122/248 167/305/247
f 148/113/228 149/103/229 169/112/249 168/122/248
f 149/103/229 150/93/230 170/102/250 169/112/249
f 150/93/230 151/83/231 171/92/251 170/102/250
f 151/83/231 152/72/232 172/82/252 171/92/251
f 152/72/232 133/62/214 153/71/234 172/82/252
f 153/71/234 154/70/233 174/80/253 173/81/254
f 154/70/233 155/79/235 175/88/255 174/80/253
f 155/79/235 156/87/236 176/96/256 175/88/255
f 156/87/236 157/291/237 177/292/257 176/96/256
f 157/291/237 158/208/238 178/217/258 177/292/257
f 158/208/238 159/197/239 179/207/259 178/217/258
f 159/197/239 160/196/240 180/206/260 179/207/259
f 160/196/240 161/205/241 181/214/261 180/206/260
f 161/205/241 162/213/242 182/222/262 181/214/261
f 162/213/242 163/221/243 183/230/263 182/222/262
f 163/221/243 164/229/244 184/238/264 183/230/263
f 164/229/244 165/237/245 185/246/265 184/238/264
f 165/237/245 166/245/246 186/254/266 185/246/265
f 166/245/246 167/365/247 187/364/267 186/254/266
f 167/305/247 168/122/248 188/131/268 187/306/267
f 168/122/248 169/112/249 189/121/269 188/131/268
f 169/112/249 170/102/250 190/111/270 189/121/269
f 170/102/250 171/92/251 191/101/271 190/111/270
f 171/92/251 172/82/252 192/91/272 191/101/271
f 172/82/252 153/71/234 173/81/254 192/91/272
f 173/81/254 174/80/253 194/89/273 193/90/274
f 174/80/253 175/88/255 195/97/275 194/89/273
f 175/88/255 176/96/256 196/105/276 195/97/275
f 176/96/256 177/292/257 197/293/277 196/105/276
f 177/292/257 178/217/258 198/226/278 197/293/277
f 178/217/258 179/207/259 199/216/279 198/226/278
f 179/207/259 180/206/260 200/215/280 199/216/279
f 180/206/260 181/214/261 201/223/281 200/215/280
f 181/214/261 182/222/262 202/231/282 201/223/281
f 182/222/262 183/230/263 203/239/283 202/231/282
f 183/230/263 184/238/264 204/247/284 203/239/283
f 184/238/264 185/246/265 205/255/285 204/247/284
f 185/246/265 186/254/266 206/263/286 205/255/285
f 186/254/266 187/364/267 207/363/287 206/263/286
f 187/306/267 188/131/268 208/140/288 207/307/287
f 188/131/268 189/121/269 209/130/289 208/140/288
f 189/121/269 190/111/270 210/120/290 209/130/289
f 190/111/270 191/101/271 211/110/291 210/120/290
f 191/101/271 192/91/272 212/100/292 211/110/291
f 192/91/272 173/81/254 193/90/274 212/100/292
f 193/90/274 194/89/273 214/98/293 213/99/294
f 194/89/273 195/97/275 215/106/295 214/98/293
f 195/97/275 196/105/276 216/114/296 215/106/295
f 196/105/276 197/293/277 217/294/297 216/114/296
f 197/293/277 198/226/278 218/235/298 217/294/297
f 198/226/278 199/216/279 219/225/299 218/235/298
f 199/216/279 200/215/280 220/224/300 219/225/299
f 200/215/280 201/223/281 221/232/301 220/224/300
f 201/223/281 202/231/282 222/240/302 221/232/301
f 202/231/282 203/239/283 223/248/303 222/240/302
f 203/239/283 204/247/284 224/256/304 223/248/303
f 204/247/284 205/255/285 225/264/305 224/256/304
f 205/255/285 206/263/286 226/270/306 225/264/305
f 206/263/286 207/363/287 227/362/307 226/270/306
f 207/307/287 208/140/288 228/147/308 227/308/307
f 208/140/288 209/130/289 229/139/309 228/147/308
f 209/130/289 210/120/290 230/129/310 229/139/309
f 210/120/290 211/110/291 231/119/311 230/129/310
f 211/110/291 212/100/292 232/109/312 231/119/311
f 212/100/292 193/90/274 213/99/294 232/109/312
f 213/99/294 214/98/293 234/107/313 233/108/314
f 214/98/293 215/106/295 235/115/315 234/107/313
f 215/106/295 216/114/296 236/123/316 235/115/315
f 216/114/296 217/294/297 237/295/317 236/123/316
f 217/294/297 218/235/298 238/244/318 237/295/317
f 218/235/298 219/225/299 239/234/319 238/244/318
f 219/225/299 220/224/300 240/233/320 239/234/319
f 220/224/300 221/232/301 241/241/321 240/233/320
f 221/232/301 222/240/302 242/249/322 241/241/321
f 222/240/302 223/248/303 243/257/323 242/249/322
f 223/248/303 224/256/304 244/265/324 243/257/323
f 224/256/304 225/264/305 245/271/325 244/265/324
f 225/264/305 226/270/306 246/275/326 245/271/325
f 226/270/306 227/362/307 247/361/327 246/275/326
f 227/308/307 228/147/308 248/152/328 247/309/327
f 228/147/308 229/139/309 249/146/329 248/152/328
f 229/139/309 230/129/310 250/138/330 249/146/329
f 230/129/310 231/119/311 251/128/331 250/138/330
f 231/119/311 232/109/312 252/118/332 251/128/331
f 232/109/312 213/99/294 233/108/314 252/118/332
f 233/108/314 234/107/313 254/116/333 253/117/334
f 234/107/313 235/115/315 255/124/335 254/116/333
f 235/115/315 236/123/316 256/132/336 255/124/335
f 236/123/316 237/295/317 257/296/337 256/132/336
f 237/295/317 238/244/318 258/253/338 257/296/337
f 238/244/318 239/234/319 259/243/339 258/253/338
f 239/234/319 240/233/320 260/242/340 259/243/339
f 240/233/320 241/241/321 261/250/341 260/242/340
f 241/241/321 242/249/322 262/258/342 261/250/341
f 242/249/322 243/257/323 263/266/343 262/258/342
f 243/257/323 244/265/324 264/272/344 263/266/343
f 244/265/324 245/271/325 265/276/345 264/272/344
f 245/271/325 246/275/326 266/279/346 265/276/345
f 246/275/326 247/361/327 267/360/347 266/279/346
f 247/309/327 248/152/328 268/155/348 267/310/347
f 248/152/328 249/146/329 269/151/349 268/155/348
f 249/146/329 250/138/330 270/145/350 269/151/349
f 250/138/330 251/128/331 271/137/351 270/145/350
f 251/128/331 252/118/332 272/127/352 271/137/351
f 252/118/332 233/108/314 253/117/334 272/127/352
f 253/117/334 254/116/333 274/125/353 273/126/354
f 254/116/333 255/124/335 275/133/355 274/125/353
f 255/124/335 256/132/336 276/141/356 275/133/355
f 256/132/336 257/296/337 277/297/357 276/141/356
f 257/296/337 258/253/338 278/262/358 277/297/357
f 258/253/338 259/243/339 279/252/359 278/262/358
f 259/243/339 260/242/340 280/251/360 279/252/359
f 260/242/340 261/250/341 281/259/361 280/251/360
f 261/250/341 262/258/342 282/267/362 281/259/361
f 262/258/342 263/266/343 283/273/363 282/267/362
f 263/266/343 264/272/344 284/277/364 283/273/363
f 264/272/344 265/276/345 285/280/365 284/277/364
f 265/276/345 266/279/346 286/282/366 285/280/365
f 266/279/346 267/360/347 287/358/367 286/282/366
f 267/310/347 268/155/348 288/157/368 287/311/367
f 268/155/348 269/151/349 289/154/369 288/157/368
f 269/151/349 270/145/350 290/150/370 289/154/369
f 270/145/350 271/137/351 291/144/371 290/150/370
f 271/137/351 272/127/352 292/136/372 291/144/371
f 272/127/352 253/117/334 273/126/354 292/136/372
f 273/126/354 274/125/353 294/134/373 293/135/374
f 274/125/353 275/133/355 295/142/375 294/134/373
f 275/133/355 276/141/356 296/148/376 295/142/375
f 276/141/356 277/297/357 297/298/377 296/148/376
f 277/297/357 278/262/358 298/269/378 297/298/377
f 278/262/358 279/252/359 299/261/379 298/269/378
f 279/252/359 280/251/360 300/260/380 299/261/379
f 280/251/360 281/259/361 301/268/381 300/260/380
f 281/259/361 282/267/362 302/274/382 301/268/381
f 282/267/362 283/273/363 303/278/383 302/274/382
f 283/273/363 284/277/364 304/281/384 303/278/383
f 284/277/364 285/280/365 305/283/385 304/281/384
f 285/280/365 286/282/366 306/284/386 305/283/385
f 286/282/366 287/358/367 307/359/387 306/284/386
f 287/311/367 288/157/368 308/158/388 307/312/387
f 288/157/368 289/154/369 309/156/389 308/158/388
f 289/154/369 290/150/370 310/153/390 309/156/389
f 290/150/370 291/144/371 311/149/391 310/153/390
f 291/144/371 292/136/372 312/143/392 311/149/391
f 292/136/372 273/126/354 293/135/374 312/143/392
s 10
f 34/313/393 33/314/394 313/315/395
f 35/317/396 34/313/393 313/315/395
f 36/319/397 35/317/396 313/315/395
f 37/321/398 36/319/397 313/315/395
f 38/323/399 37/321/398 313/315/395
f 39/325/400 38/323/399 313/315/395
f 40/327/401 39/325/400 313/315/395
f 41/329/402 40/327/401 313/315/395
f 42/331/403 41/329/402 313/315/395
f 43/333/404 42/331/403 313/315/395
f 44/332/405 43/333/404 313/315/395
f 45/330/406 44/332/405 313/315/395
f 46/328/407 45/330/406 313/315/395
f 47/326/408 46/328/407 313/315/395
f 48/324/409 47/326/408 313/315/395
f 49/322/410 48/324/409 313/315/395
f 50/320/411 49/322/410 313/315/395
f 51/318/412 50/320/411 313/315/395
f 52/316/413 51/318/412 313/315/395
f 33/314/394 52/316/413 313/315/395
s 11
f 293/334/414 294/335/415 314/336/416
f 294/335/415 295/337/417 314/336/416
f 295/337/417 296/339/418 314/336/416
f 296/339/418 297/341/419 314/336/416
f 297/341/419 298/343/420 314/336/416
f 298/343/420 299/345/421 314/336/416
f 299/345/421 300/347/422 314/336/416
f 300/347/422 301/349/423 314/336/416
f 301/349/423 302/351/424 314/336/416
f 302/351/424 303/353/425 314/336/416
f 303/353/425 304/354/426 314/336/416
f 304/354/426 305/352/427 314/336/416
f 305/352/427 306/350/428 314/336/416
f 306/350/428 307/348/429 314/336/416
f 307/348/429 308/346/430 314/336/416
f 308/346/430 309/344/431 314/336/416
f 309/344/431 310/342/432 314/336/416
f 310/342/432 311/340/433 314/336/416
f 311/340/433 312/338/434 314/336/416
f 312/338/434 293/334/414 314/336/416
