%YAML 1.1
%TAG !u! tag:unity3d.com,2011:
--- !u!1045 &1
EditorBuildSettings:
  m_ObjectHideFlags: 0
  serializedVersion: 2
  m_Scenes:
  - enabled: 1
    path: Assets/Scenes/Main Menu.unity
    guid: fdc8ce9f5972ef54cb0f88bee3beedd7
  - enabled: 1
    path: Assets/Scenes/Proto.unity
    guid: 1f7fe0429a524d84183f2f97c1271ed4
  m_configObjects: {}
